<svg xmlns="http://www.w3.org/2000/svg" width="13" height="13" viewBox="0 0 13 13">
    <g fill="none" fill-rule="evenodd" transform="translate(1 1)">
        <path stroke="#F4CE42" stroke-width=".5" d="M10.71 1.896c-.137-.367-.353-.7-.632-.974C9.803.642 9.47.427 9.104.29 8.756.153 8.352.06 7.77.034 7.183.008 6.996 0 5.5 0S3.817.004 3.23.034C2.644.06 2.244.153 1.896.29c-.367.138-.7.354-.974.633-.28.275-.495.607-.633.974-.136.348-.23.752-.255 1.334C.008 3.817 0 4.004 0 5.5s.004 1.683.034 2.27c.025.586.119.986.255 1.334.138.367.354.7.633.974.275.28.607.495.974.633.348.136.752.23 1.334.255.587.026.774.034 2.27.034s1.683-.004 2.27-.034c.586-.025.986-.119 1.334-.255.367-.138.7-.354.974-.633.28-.275.495-.607.633-.974.136-.348.23-.752.255-1.334.026-.587.034-.774.034-2.27s-.004-1.683-.034-2.27c-.025-.586-.119-.986-.255-1.334z"/>
        <path stroke="#F4CE42" stroke-width=".5" d="M5.5 3.3c-1.214 0-2.2.986-2.2 2.2 0 1.214.986 2.2 2.2 2.2 1.214 0 2.2-.986 2.2-2.2 0-1.214-.986-2.2-2.2-2.2z"/>
        <circle cx="8.25" cy="2.2" r="1" fill="#F4CE42" fill-rule="nonzero"/>
    </g>
</svg>
